{
  "1": {
    "icon": "fa-gitlab",
    "link": "https://gitlab.com/jjghali",
    "title": "@jjghali"
  },
  "2": {
    "icon": "fa-github",
    "link": "https://github.com/jjghali",
    "title": "@jjghali"
  },
  "3": {
    "icon": "fa-dev",
    "link": "https://dev.to/jjghali",
    "title": "jjghali's DEV Profile"
  },
  "4": {
    "icon": "fa-linkedin",
    "link": "https://www.linkedin.com/in/jjghali/",
    "title": "jjghali's Linkedin Profile"
  }
}
